"-6qpoXJFAdQ,220.000,230.000,/m/01wy6,/m/0l14j_"
"-8NloAFSlwQ,190.000,200.000,/m/06ncr,/m/0mkg"
"-JUlvboQz9A,270.000,280.000,/m/03qjg,/m/0mkg"
"-SZ9Iae3KZc,280.000,290.000,/m/05r5c,/m/05148p4,/m/0mkg"
"-bja0Dc1s7o,30.000,40.000,/m/01xqw,/m/0l14j_"
"-iiS6mvkJ98,330.000,340.000,/m/02hnl,/m/0mkg"
"-vMFoQQw9hY,170.000,180.000,/m/05r5c,/m/0l14j_,/m/05148p4"
"-xIQ2G2zWfc,380.000,390.000,/m/05r5c,/m/0l14j_"
"-zzoo8HAVjY,30.000,40.000,/m/01wy6,/m/0l14j_"
"014wEN3qV1E,120.000,130.000,/m/05r5c,/m/0l14j_,/m/05pd6"
"06OMekgtQkM,110.000,120.000,/m/05pd6,/m/0l14j_"
"07uyW4Y3og0,560.000,570.000,/m/05r5c,/m/0l14j_,/m/05148p4"
"09C0k_WRvBs,150.000,160.000,/m/042v_gx,/m/0342h,/m/0mkg"
"0HbpWijLnhQ,30.000,40.000,/m/026t6,/m/0l14j_"
"0Joj06p-hNk,20.000,30.000,/m/05r5c,/m/0l14j_,/m/05148p4"
"0P8acnEXs0Q,190.000,200.000,/m/026t6,/m/0l14j_,/m/02hnl"
"0Y1JH8PdHAA,80.000,90.000,/m/06ncr,/m/0mkg"
"0fsbhgjBvmM,140.000,150.000,/m/01xqw,/m/0l14j_"
"0mAJOcH2T_Q,340.000,350.000,/m/05r5c,/m/0l14j_,/m/05pd6"
"0or_HnwmGCQ,250.000,260.000,/m/05pd6,/m/0mkg"
"0p1f15EtJ0Y,30.000,40.000,/m/07gql,/m/0l14j_"
"14-EVR52DX4,30.000,40.000,/m/026t6,/m/0342h,/m/0mkg"
"1Uy5_ZcBqXY,50.000,60.000,/m/05r5c,/m/0l14j_"
"1fioenvrmUQ,160.000,170.000,/m/05r5c,/m/0l14j_"
"1r8pb282DDg,20.000,30.000,/m/05pd6,/m/0mkg"
"1v2Q_Is23EU,190.000,200.000,/m/05r5c,/m/0l14j_"
"1x-vhDdrESo,180.000,190.000,/m/01xqw,/m/0l14j_"
"26_wPS_5Yvs,360.000,370.000,/m/042v_gx,/m/0342h,/m/0mkg"
"2CEhA-Jp1ls,240.000,250.000,/m/02bk07,/m/0l14jd,/m/0mkg"
"2SPL3Tnrvdo,30.000,40.000,/m/01xqw,/m/0l14j_"
"2nM0zxI0tV0,90.000,100.000,/m/0342h,/m/0mkg"
"2nycmG_4bXU,300.000,310.000,/m/05pd6,/m/0mkg"
"2sABgyMek3g,320.000,330.000,/m/03m5k,/m/01xqw,/m/0l14j_"
"2uync1_M0_s,180.000,190.000,/m/0l14j_,/m/0mkg"
"31hTm01pRWc,140.000,150.000,/m/05pd6,/m/0mkg"
"32XfH-GUv2s,30.000,40.000,/m/01xqw,/m/0l14j_"
"3EuCX79Ly34,110.000,120.000,/m/0dwsp,/m/0l14j_"
"3T3f8kRjZRs,260.000,270.000,/m/026t6,/m/0l14j_,/m/04rzd"
"3iaoX6cB6_k,210.000,220.000,/m/05148p4,/m/0mkg"
"3yPAq5zb4YQ,130.000,140.000,/m/0192l,/m/0mkg"
"4H6nq25DzFE,20.000,30.000,/m/026t6,/m/0mkg"
"4SJTkLvOzzg,200.000,210.000,/m/05r5c,/m/0l14j_"
"4_RVNbquLDM,30.000,40.000,/m/01xqw,/m/0l14j_"
"4eMSFoyteEk,70.000,80.000,/m/05r5c,/m/0mkg"
"4x82135gCsk,120.000,130.000,/m/05r5c,/m/0l14j_,/m/01wy6"
"5Ew_N9oSNq0,340.000,350.000,/m/05r5c,/m/0l14j_,/m/05pd6"
"5KrnLRKe7rw,240.000,250.000,/m/05r5c,/m/0l14j_"
"5cO9CHPsJw8,30.000,40.000,/m/05pd6,/m/0mkg"
"5csyeJ9nUS0,180.000,190.000,/m/01p970,/m/0mkg"
"5p175orgQdw,30.000,40.000,/m/03m5k,/m/0mkg"
"5qa36TlCba4,230.000,240.000,/m/05r5c,/m/01wy6,/m/0l14j_"
"5vim6-ZYt3k,350.000,360.000,/m/05pd6,/m/0mkg"
"5yp4UeeET4A,110.000,120.000,/m/06ncr,/m/0mkg"
"5zK61SZ0nuU,40.000,50.000,/m/0342h,/m/0mkg"
"62xEtryKV3c,60.000,70.000,/m/03qjg,/m/0mkg"
"63Hd1-8nIUI,40.000,50.000,/m/05pd6,/m/0l14j_"
"6C0BMqq0kfA,100.000,110.000,/m/05pd6,/m/0mkg"
"6C4-wiQdDCc,40.000,50.000,/m/01xqw,/m/0l14j_"
"6K34pzMGl60,290.000,300.000,/m/05r5c,/m/0mkg"
"6KzC13g2ddc,160.000,170.000,/m/05r5c,/m/0l14j_"
"6PLzxQ7p1gE,400.000,410.000,/m/0342h,/m/0mkg"
"6T2VhueECY8,0.000,10.000,/m/0jtg0,/m/0l14j_"
"6fD8Rt3_tBg,290.000,300.000,/m/05148p4,/m/0mkg"
"6lh5_Lw_ysI,200.000,210.000,/m/0342h,/m/0mkg"
"6yCVFphBx3Y,470.000,480.000,/m/01xqw,/m/06ncr,/m/0mkg"
"707Fw6ceRc8,210.000,220.000,/m/03qjg,/m/0mkg"
"76wIPDMECU8,0.000,10.000,/m/03qjg,/m/0mkg"
"77f_bjlVDYM,150.000,160.000,/m/01xqw,/m/0mkg"
"7J_64nTOclo,120.000,130.000,/m/05r5c,/m/0l14j_"
"7SlwAMIZoOs,130.000,140.000,/m/0342h,/m/0mkg"
"7Sx55SxCMBQ,30.000,40.000,/m/01xqw,/m/0l14j_"
"7euTXDRbfhU,300.000,310.000,/m/05pd6,/m/0mkg"
"7nPxmqvLETI,120.000,130.000,/m/05r5c,/m/0l14j_"
"8Bmx1piUxmY,240.000,250.000,/m/05r5c,/m/01xqw,/m/0l14j_"
"8WWFzpUuIuc,250.000,260.000,/m/01xqw,/m/0l14j_"
"8dhruPvWDXI,120.000,130.000,/m/05pd6,/m/0l14j_"
"8kbck9qawmY,550.000,560.000,/m/05r5c,/m/0l14j_"
"8rZvE6Z8ATc,80.000,90.000,/m/07gql,/m/0l14j_"
"99cGCS0ko2Q,120.000,130.000,/m/06ncr,/m/0mkg"
"9C0PRSlQpuY,100.000,110.000,/m/05r5c,/m/01xqw,/m/0l14j_"
"9JV035UNlIA,20.000,30.000,/m/05r5c,/m/0l14j_"
"9OfEi4AYOlE,40.000,50.000,/m/03qjg,/m/0mkg"
"9Z6P-HH4PAc,270.000,280.000,/m/0l14j_,/m/0mkg"
"9kEhg1pdevM,30.000,40.000,/m/05r5c,/m/0l14j_,/m/05148p4"
"9q4OwCGW5E0,150.000,160.000,/t/dd00003,/m/0mkg"
"A6N3PuDHjfk,20.000,30.000,/m/05148p4,/m/0mkg"
"AIduRd9jXr0,20.000,30.000,/m/0342h,/m/0mkg"
"AMqQ3YmFYdA,210.000,220.000,/m/01xqw,/m/0mkg"
"ASJ8WzuwJc4,30.000,40.000,/m/05r5c,/m/0l14j_"
"AV_bNtZ3TQc,30.000,40.000,/m/04rzd,/m/018j2,/m/0mkg"
"AWC58XK8I4g,10.000,20.000,/m/0bm02,/m/026t6,/m/02hnl,/m/0mkg"
"AbIqK7Dy9Mo,240.000,250.000,/m/05r5c,/m/0l14j_,/m/05148p4"
"Aeta3gnGqrs,20.000,30.000,/m/05r5c,/m/0l14j_,/m/05148p4"
"AhMqKE9f8dM,30.000,40.000,/m/05r5c,/m/01s0ps,/m/0l14j_"
"Al5zyz9xq_M,90.000,100.000,/m/05r5c,/m/0l14j_"
"Alwpvv60ppI,60.000,70.000,/m/05r5c,/m/0l14j_"
"AmO3EWBS4AU,10.000,20.000,/m/05148p4,/m/0mkg"
"AnGqUMgbSyo,0.000,10.000,/m/05148p4,/m/0mkg"
"B1WBDa5mwEU,30.000,40.000,/m/05pd6,/m/0l14j_"
"B8nfTF310Eo,160.000,170.000,/m/05r5c,/m/0l14j_,/m/05148p4"
"BAUmFixiyuQ,30.000,40.000,/m/03qjg,/m/0342h,/m/0mkg"
"BLYOARZQQvw,510.000,520.000,/m/05148p4,/m/0mkg"
"BcZoN3nrY_k,40.000,50.000,/m/05r5c,/m/01xqw,/m/0l14j_,/m/05148p4"
"BvBmYyFVX4E,30.000,40.000,/m/01wy6,/m/05pd6,/m/0mkg"
"C-gAW2ZT7zM,0.000,10.000,/m/05r5c,/m/0l14j_"
"C7NFpJn6diI,50.000,60.000,/m/0342h,/m/0mkg"
"CEz_-DleBiM,80.000,90.000,/m/0l14j_,/m/0mkg"
"CJ15dPV0qSQ,10.000,20.000,/m/03qjg,/m/0l14j_"
"CKYP3ApE1G8,140.000,150.000,/m/07gql,/m/0mkg"
"CZb2nbND3Q4,30.000,40.000,/m/0342h,/m/04rzd,/m/018j2,/m/0mkg"
"CjOsWtBKGCM,100.000,110.000,/m/06ncr,/m/0mkg"
"CncPNv2Ywpk,150.000,160.000,/m/0342h,/m/0mkg"
"Ct0BPe1h-Sk,10.000,20.000,/m/0l14j_,/m/0mkg"
"CuIxAp9bkAk,70.000,80.000,/m/03qjg,/m/0mkg"
"D5k4xss39XM,280.000,290.000,/m/05r5c,/m/0l14j_"
"DBXpx2cU-CY,20.000,30.000,/m/03qjg,/m/0mkg"
"DKEwkMDiJSI,20.000,30.000,/m/0342h,/m/0mkg"
"DM7asXEV3YY,320.000,330.000,/m/0l14j_,/m/0mkg"
"DNi5ItvuHOk,10.000,20.000,/m/026t6,/m/0mkg"
"DasXtOWiYTI,90.000,100.000,/m/06ncr,/m/0mkg"
"Dd9C1UHRzgw,10.000,20.000,/m/05r5c,/m/0l14j_,/m/05148p4"
"E-JQTXnS6YE,70.000,80.000,/m/03qjg,/m/0mkg"
"E-YyFthv9yo,40.000,50.000,/m/01wy6,/m/0l14j_"
"E4JuGS6HiVs,40.000,50.000,/m/05pd6,/m/0mkg"
"E6nkqOk5PDo,10.000,20.000,/m/05r5c,/m/0l14j_"
"EFiCpvwJ9Bg,110.000,120.000,/m/05r5c,/m/0l14j_,/m/01wy6"
"EI6uroAKR7g,60.000,70.000,/m/03qjg,/m/0mkg"
"ETw4Ku2uh5U,90.000,100.000,/m/05r5c,/m/0l14j_,/m/05148p4"
"EYT7gaV_uyM,80.000,90.000,/m/01xqw,/m/0mkg"
"Eb-g_Bqr5VE,30.000,40.000,/m/018j2,/m/0mkg"
"Eneat5dQwa0,50.000,60.000,/m/01wy6,/m/0l14j_"
"Epaja_bt6fY,30.000,40.000,/m/05r5c,/m/0l14j_,/m/05148p4"
"EsSochEDD2c,60.000,70.000,/m/05pd6,/m/0mkg"
"EuXUFc6wuHw,40.000,50.000,/m/05r5c,/m/0l14j_"
"F-ibIkPxlvM,70.000,80.000,/m/0342h,/m/0mkg"
"F0Ja4bXvH5g,340.000,350.000,/m/01xqw,/m/0l14j_"
"F2kDt1dR4rU,0.000,10.000,/m/0342h,/m/0mkg"
"FP9r7BIXReY,130.000,140.000,/m/0342h,/m/0mkg"
"FVZr5OXn_hg,60.000,70.000,/t/dd00005,/m/0mkg"
"Fh5hYnCY4hM,390.000,400.000,/m/03qjg,/m/0mkg"
"FmbrhHofpzQ,90.000,100.000,/m/03qjg,/m/0l14j_,/m/0mkg"
"Fn_m4N16Akk,30.000,40.000,/m/05148p4,/m/0mkg"
"G6kLxecsikI,210.000,220.000,/m/01xqw,/m/0l14j_"
"GEXQt7zHGwI,40.000,50.000,/m/05r5c,/m/05148p4,/m/0mkg"
"GLpG-T5f_Rc,70.000,80.000,/m/06ncr,/m/0mkg"
"GRddFbBD_NI,20.000,30.000,/m/05r5c,/m/0l14j_"
"Gw1WIM1MFZE,70.000,80.000,/m/05r5c,/m/03m5k,/m/0l14j_"
"H-XCKelYUdY,30.000,40.000,/m/04rzd,/m/0mkg"
"H5zuhtLk91w,100.000,110.000,/m/03qjg,/m/0mkg"
"HF-6Cdhjz5k,30.000,40.000,/m/01wy6,/m/0l14j_,/m/06ncr"
"HUjAFOOTHic,270.000,280.000,/m/05r5c,/m/0l14j_"
"HYLv7oPxj8A,70.000,80.000,/m/03qjg,/m/0mkg"
"HcyTOPC9upQ,310.000,320.000,/m/05r5c,/m/0l14j_"
"HsM_pyyy4BQ,40.000,50.000,/m/05r5c,/m/0l14j_,/m/05148p4"
"HwgevB88lSA,130.000,140.000,/m/05r5c,/m/0l14j_"
"I33p_FaBuvo,30.000,40.000,/m/05r5c,/m/0l14j_,/m/05pd6,/m/01wy6"
"I4DMSkjP8YQ,320.000,330.000,/m/0342h,/m/0mkg"
"IE6XVQAog2U,60.000,70.000,/m/0dwsp,/m/0l14j_"
"Ic_MLf2ioDE,30.000,40.000,/m/05r5c,/m/01wy6,/m/0l14j_,/m/05148p4"
"IqfYeXwl-Vk,240.000,250.000,/m/07gql,/m/0mkg"
"IvcAghx_x7I,0.000,10.000,/m/05r5c,/m/0l14j_"
"IwnFtnmCifY,70.000,80.000,/m/01wy6,/m/0l14j_"
"J3ywwlQNA8Q,200.000,210.000,/m/05r5c,/m/0l14j_"
"J5nmSstYaDo,170.000,180.000,/m/0342h,/m/0mkg"
"JFoEL8OvSjk,30.000,40.000,/m/01xqw,/m/0l14j_"
"JKkPhdKTiy0,30.000,40.000,/m/01xqw,/m/0l14j_"
"JVaztcn7ozE,30.000,40.000,/m/03qjg,/m/0mkg"
"JbpsKa1gnr4,30.000,40.000,/m/01wy6,/m/0l14j_"
"JleyzO21Pk8,340.000,350.000,/m/05r5c,/m/01wy6,/m/0l14j_"
"K06Ihpg5d4s,60.000,70.000,/m/01xqw,/m/0mkg"
"KFb2Ry8gg8s,40.000,50.000,/m/03qjg,/m/0l14j_,/m/0342h"
"KNuRchxK6RQ,130.000,140.000,/m/01xqw,/m/05pd6,/m/0mkg"
"KO4zQL-vfL4,10.000,20.000,/m/03m5k,/m/0mkg"
"KQ3OAupjEro,130.000,140.000,/t/dd00003,/m/0mkg"
"KWdhwfzfppg,260.000,270.000,/m/01xqw,/m/0mkg"
"KWiD_YaAKdA,30.000,40.000,/m/01xqw,/m/0l14j_"
"KWrlWS5lq_A,170.000,180.000,/m/0342h,/m/0mkg"
"K_GfZ1IdpBY,30.000,40.000,/m/01wy6,/m/0l14j_"
"Kam8jGWMeKA,70.000,80.000,/m/0192l,/m/0mkg"
"KgnFvA75-JU,560.000,570.000,/m/01xqw,/m/0l14j_"
"KnqujVdnODU,110.000,120.000,/m/01wy6,/m/0mkg"
"Kq3V2SXhwd8,150.000,160.000,/m/01xqw,/m/0mkg"
"KqR0EQ_lj7s,120.000,130.000,/m/03m5k,/m/0l14j_"
"KsHFCoxiGvM,480.000,490.000,/m/01p970,/m/0mkg"
"KyaYVNQM1is,40.000,50.000,/m/01xqw,/m/0mkg"
"LNlzfLW2PFw,130.000,140.000,/m/01xqw,/m/0l14j_"
"LSjPCQfQ53g,30.000,40.000,/m/026t6,/m/0l14j_"
"LVh4ISU02qw,270.000,280.000,/m/01wy6,/m/0l14j_"
"LarJmFg-usY,30.000,40.000,/m/042v_gx,/m/0l14j_,/m/0342h"
"Lbq3yedMzkk,30.000,40.000,/m/03qjg,/m/0l14j_"
"LfnzYb_yMVw,30.000,40.000,/m/0jtg0,/m/0l14j_"
"Llli0Vs1r5Q,150.000,160.000,/m/018j2,/m/0mkg"
"LsO2H-FiMl8,0.000,10.000,/m/03xq_f,/m/0mkg"
"LtF0DCfGNG0,50.000,60.000,/m/02sgy,/m/0l14j_,/m/0342h"
"M0mqjS1VDck,20.000,30.000,/m/0l14j_,/m/0342h,/m/0mkg"
"M40jbAK_bCw,70.000,80.000,/t/dd00003,/m/0mkg"
"M7GBQd-vubQ,60.000,70.000,/m/05r5c,/m/0l14j_"
"MQtlvVvznDk,130.000,140.000,/m/042v_gx,/m/0342h,/m/0mkg"
"MWODeQJ5wYQ,0.000,10.000,/m/01wy6,/m/0mkg"
"MWyVUu7B1lE,40.000,50.000,/m/01wy6,/m/0l14j_"
"NLPLpDuQja0,80.000,90.000,/m/07gql,/m/05pd6,/m/0mkg"
"NT4uiOsbmrY,160.000,170.000,/t/dd00004,/m/0mkg"
"NVLP7-TYYVU,190.000,200.000,/m/05r5c,/m/05148p4,/m/0mkg"
"NWWnmNx9uAo,160.000,170.000,/m/07gql,/m/0mkg"
"NZmCtmaeozQ,310.000,320.000,/t/dd00003,/m/0mkg"
"Nh6Qz6C5j14,220.000,230.000,/m/06ncr,/m/0mkg"
"Nmy2m16BHGg,430.000,440.000,/m/0jtg0,/m/0l14j_"
"Np5Ub-c6ck0,160.000,170.000,/m/05pd6,/m/0mkg"
"NqGl79sxA10,20.000,30.000,/m/05r5c,/m/0l14j_,/m/05148p4"
"Nv01Qx90Z4Y,40.000,50.000,/m/01xqw,/m/0l14j_"
"OFCT3_0yLKc,230.000,240.000,/m/05r5c,/m/0mkg"
"OQGN_tUpzmI,180.000,190.000,/m/02hnl,/m/0mkg"
"OVno3Qa5098,330.000,340.000,/m/05r5c,/m/0l14j_"
"OWsWzppYjB4,240.000,250.000,/m/05pd6,/m/0mkg"
"Ogl6oPT_5bY,60.000,70.000,/m/05pd6,/m/0mkg"
"OmX3zDKvu0k,250.000,260.000,/m/06ncr,/m/0mkg"
"OzESvlrWRU0,50.000,60.000,/m/01wy6,/m/06ncr,/m/0mkg"
"OzakkIFaUcA,130.000,140.000,/m/05pd6,/m/0342h,/m/0mkg"
"P0wLwOznlNE,150.000,160.000,/m/042v_gx,/m/0l14j_,/m/0342h"
"P3e3EwBK-Jw,0.000,10.000,/m/0dwsp,/m/0l14j_"
"PE9--J5H3l0,510.000,520.000,/m/05r5c,/m/0l14j_"
"PF4mC0xFK_A,30.000,40.000,/m/05pd6,/m/0l14j_"
"PNFICjzITfo,210.000,220.000,/m/0l14jd,/m/0mkg"
"PWdGOINzj2M,90.000,100.000,/m/05r5c,/m/0l14j_"
"PZZ2NAF5wxE,30.000,40.000,/m/01xqw,/m/0l14j_"
"PlhvyBIuu3Q,50.000,60.000,/m/026t6,/m/02hnl,/m/0mkg"
"PnxRVLjTVz0,140.000,150.000,/m/0342h,/m/0mkg"
"Pwk8yFIJP3w,190.000,200.000,/m/026t6,/m/0l14j_"
"PzMZ-gbsvwc,430.000,440.000,/m/05r5c,/m/0l14j_,/m/05pd6,/m/05148p4"
"Q4KNKaFsyCs,10.000,20.000,/m/01wy6,/m/0l14j_"
"Q5jWeIKzVHA,100.000,110.000,/m/06ncr,/m/0mkg"
"QO0bnvcpYkM,60.000,70.000,/m/03m5k,/m/01xqw,/m/0l14j_"
"QUGmOfG0wn0,120.000,130.000,/m/0342h,/m/0mkg"
"QUYBG3aC_EM,160.000,170.000,/m/05r5c,/m/0l14j_,/m/01xqw,/m/05pd6"
"QYW5vZcsTkw,390.000,400.000,/m/0342h,/m/0mkg"
"QYmKOC02zMg,40.000,50.000,/m/05r5c,/m/0l14j_,/m/05148p4"
"Qai994is4Xw,90.000,100.000,/m/05r5c,/m/05148p4,/m/0mkg"
"QpuOpilMLfc,580.000,590.000,/m/0l14j_,/m/0mkg"
"QtWsLIRVQ2U,290.000,300.000,/m/05r5c,/m/0l14j_,/m/05pd6"
"QvW9SDH9a54,100.000,110.000,/m/05148p4,/m/0mkg"
"Qy34Pv2XKmo,30.000,40.000,/m/05r5c,/m/01xqw,/m/0l14j_,/m/05148p4"
"R0Ra20JmgbY,30.000,40.000,/m/05pd6,/m/0mkg"
"R37IgPTfA4M,240.000,250.000,/m/05r5c,/m/0l14j_"
"R5HisB3l768,280.000,290.000,/m/05pd6,/m/0l14j_"
"Rg9u7Steqhk,40.000,50.000,/m/05r5c,/m/01xqw,/m/0l14j_"
"RrPz6mJgy54,70.000,80.000,/m/01xqw,/m/0mkg"
"RrgS1lKTy4M,70.000,80.000,/m/0342h,/m/0mkg"
"RuIQP-3UtaA,30.000,40.000,/m/0l14j_,/m/0mkg"
"RyxZCL5sM9A,210.000,220.000,/m/05r5c,/m/0l14j_"
"RzTNtFihzyA,10.000,20.000,/m/05r5c,/m/0l14j_"
"RzZRocKt4x4,90.000,100.000,/m/05r5c,/m/03m5k,/m/0mkg"
"SJ5lSo6rY3U,130.000,140.000,/m/03qjg,/m/0mkg"
"SgFC1RZ3raA,400.000,410.000,/m/05r5c,/m/0l14j_"
"SnHNGYqql4Y,270.000,280.000,/m/01p970,/m/0mkg"
"SnIoBcXtUMk,40.000,50.000,/m/01xqw,/m/05pd6,/m/0mkg"
"T0tZ01WD-YA,70.000,80.000,/m/01wy6,/m/0l14j_"
"T191njcsm2M,230.000,240.000,/m/03qjg,/m/0l14j_"
"T2rZAqDEKT4,0.000,10.000,/m/07gql,/m/0mkg"
"TF8gX0-nGBA,190.000,200.000,/m/05r5c,/m/0l14j_"
"TJMuT5_vDTI,80.000,90.000,/m/0342h,/m/0mkg"
"TSpuOaqGDko,30.000,40.000,/m/0l14j_,/m/0mkg"
"TTP5cOPypVE,50.000,60.000,/m/01wy6,/m/0l14j_"
"T_4qrnwFkJw,290.000,300.000,/m/05pd6,/m/0mkg"
"Tc5TGq0dDCI,220.000,230.000,/m/0342h,/m/0mkg"
"TgiKRm4qrsw,0.000,10.000,/m/0342h,/m/0mkg"
"U2XcTs8klgI,70.000,80.000,/m/03qjg,/m/0mkg"
"U4Gh3fNFYic,30.000,40.000,/m/06ncr,/m/0mkg"
"U56efmjKkzk,90.000,100.000,/m/0342h,/m/0mkg"
"UD-qPfXdSsE,10.000,20.000,/m/05148p4,/m/0mkg"
"ULs-Rk9MV3w,180.000,190.000,/m/03qjg,/m/0mkg"
"UP97vV4sSw8,220.000,230.000,/m/05r5c,/m/0l14j_,/m/05pd6,/m/05148p4"
"UYJht_3Ow3E,30.000,40.000,/m/05r5c,/m/0l14j_"
"UbkqFFaw-pM,170.000,180.000,/m/07gql,/m/0mkg"
"Ue6YWr2bE00,30.000,40.000,/m/01xqw,/m/0l14j_"
"Ur8hm3aJ9Qw,180.000,190.000,/m/042v_gx,/m/0342h,/m/0mkg"
"V0lXT_deEww,400.000,410.000,/m/0jtg0,/m/0l14j_"
"V3AIPlISgV0,280.000,290.000,/m/01wy6,/m/0l14j_"
"V5dTEI9duNk,230.000,240.000,/m/0342h,/m/0mkg"
"V8E9ahfiACI,160.000,170.000,/m/01wy6,/m/0mkg"
"VE2in5tjJHw,190.000,200.000,/m/05r5c,/m/0l14j_"
"VJ5GDOX_taY,470.000,480.000,/m/03m5k,/m/0l14j_,/m/05pd6"
"VQHrw7cuUns,180.000,190.000,/m/05r5c,/m/0l14j_"
"Vgry0pb5Jcs,590.000,600.000,/m/05r5c,/m/0l14j_,/m/05pd6,/m/05148p4,/m/01wy6"
"VqouqE0Ehz4,10.000,20.000,/m/0342h,/m/0mkg"
"W12iTbnVhu4,170.000,180.000,/m/05r5c,/m/0l14j_"
"W13LuNag27Q,170.000,180.000,/m/05148p4,/m/0mkg"
"W1BcsERXU7s,30.000,40.000,/m/01xqw,/m/0l14j_"
"W2G1B54JCOk,160.000,170.000,/m/05pd6,/m/0mkg"
"WECCpNh0LxI,0.000,10.000,/m/03m5k,/m/0l14j_"
"WHt8Uol4aC4,110.000,120.000,/m/05r5c,/m/0l14j_"
"WOSmZ0XUR4U,260.000,270.000,/m/05r5c,/m/0l14j_,/m/05148p4"
"WRWxTKL-2LY,370.000,380.000,/m/05pd6,/m/0mkg"
"WfFI1_H-IP0,120.000,130.000,/m/01wy6,/m/0l14j_"
"Wgjot1ij5og,160.000,170.000,/m/02hnl,/m/0mkg"
"Wk6XGKe7ZVI,90.000,100.000,/m/0342h,/m/0mkg"
"WpnHys9c_KA,160.000,170.000,/m/042v_gx,/m/0l14j_,/m/0342h"
"Wv3slUl5fDI,30.000,40.000,/m/05r5c,/m/0l14j_,/m/05148p4"
"WvjctkLzvyw,190.000,200.000,/m/0342h,/m/0mkg"
"X-PDpLcUITM,30.000,40.000,/m/05pd6,/m/0l14j_"
"X0F8_UzNtFI,80.000,90.000,/m/05r5c,/m/0l14j_"
"X77bWGQcgts,180.000,190.000,/m/0342h,/m/0mkg"
"X7UzufqWcxU,70.000,80.000,/m/0l14j_,/m/0mkg"
"XA_dm0gEDYA,40.000,50.000,/m/05r5c,/m/0l14j_"
"XD9sZ650fpA,10.000,20.000,/m/03qjg,/m/0mkg"
"XJxOC0gZnqM,40.000,50.000,/m/05r5c,/m/0mkg"
"XKSsX4vnRiY,190.000,200.000,/m/05r5c,/m/0l14j_"
"XTlZW_Vb2vo,20.000,30.000,/m/05r5c,/m/0l14j_,/m/05148p4"
"XWMuGpApurg,470.000,480.000,/m/0dwsp,/m/0l14j_"
"XWcvCNUuMAo,190.000,200.000,/m/03qjg,/m/0mkg"
"X_aH8KkyXjI,60.000,70.000,/m/05pd6,/m/0mkg"
"Xb9dNq2EGyU,290.000,300.000,/m/03qjg,/m/0mkg"
"Y-uL7c41JD8,70.000,80.000,/m/03m5k,/m/0l14j_"
"YBbNan4xsKU,170.000,180.000,/m/026t6,/m/02hnl,/m/0mkg"
"YH4QBuofIHs,40.000,50.000,/m/03m5k,/m/0l14j_"
"YJdB46D_-CY,460.000,470.000,/m/05r5c,/m/0l14j_"
"YP5rG9M8Mk0,100.000,110.000,/m/07gql,/m/06ncr,/m/0mkg"
"YRi6hOxi0sw,270.000,280.000,/m/05pd6,/m/0mkg"
"YUEMj_sL7EM,40.000,50.000,/m/05pd6,/m/0l14j_"
"YXycTwcrQ38,260.000,270.000,/m/05pd6,/m/0mkg"
"YpOLFkV0q7M,390.000,400.000,/m/05r5c,/m/0l14j_"
"YwtSJGyNhRE,130.000,140.000,/m/05r5c,/m/05148p4,/m/0mkg"
"YzpgnPQkbF8,30.000,40.000,/m/0192l,/m/0mkg"
"Z1wZ9z0fmDA,160.000,170.000,/m/01xqw,/m/0l14j_,/m/0342h"
"ZIT_QnUIgLQ,130.000,140.000,/m/03qjg,/m/0mkg"
"ZJ-mVENjBQ4,50.000,60.000,/m/042v_gx,/m/0342h,/m/0mkg"
"ZL20Fiq8WHA,50.000,60.000,/m/03m5k,/m/0l14j_"
"ZQhcpiWDaTQ,70.000,80.000,/m/03m5k,/m/0l14j_"
"ZUx99W86yYc,60.000,70.000,/m/06ncr,/m/0mkg"
"ZsQFv-aUZ7U,380.000,390.000,/m/05pd6,/m/0mkg"
"ZthhEAfuu-c,320.000,330.000,/m/05pd6,/m/0mkg"
"Zxq1BSWsmVI,0.000,10.000,/m/01wy6,/m/06ncr,/m/0mkg"
"_BLT0h3VCgg,0.000,10.000,/m/03qjg,/m/0mkg"
"_bKKgYc5UKo,70.000,80.000,/m/05r5c,/m/0mkg"
"_hJO8dghiOA,90.000,100.000,/m/05pd6,/m/0mkg"
"_hgv6w8FEbQ,20.000,30.000,/m/03m5k,/m/0l14j_"
"_iI28GEM-WM,430.000,440.000,/m/03m5k,/m/0l14j_"
"_rE3U8LCLyA,30.000,40.000,/m/05r5c,/m/0l14j_,/m/05148p4"
"_rvI4bZm96o,30.000,40.000,/m/05r5c,/m/0mkg"
"_yjGQqslbI0,30.000,40.000,/m/05r5c,/m/0l14j_,/m/0319l"
"a2AinpvtaZk,100.000,110.000,/m/01xqw,/m/0l14j_"
"a75t5cCT85Q,20.000,30.000,/m/04rzd,/m/0342h,/m/0mkg"
"aK851--SvsY,30.000,40.000,/m/01xqw,/m/0l14j_"
"aUcH5vHZCjQ,30.000,40.000,/m/05r5c,/m/0l14j_,/m/05148p4"
"aZdtKQFUrY8,60.000,70.000,/m/0342h,/m/0mkg"
"a_s54dmp6Xc,200.000,210.000,/t/dd00004,/m/0mkg"
"aeG6ftVED94,200.000,210.000,/m/05pd6,/m/0l14j_"
"afJFNGBfNgU,70.000,80.000,/m/0342h,/m/0mkg"
"ajuuPDeAO1A,120.000,130.000,/m/05r5c,/m/03m5k,/m/01xqw,/m/0l14j_,/m/05pd6"
"alL2S0Ky49s,240.000,250.000,/m/026t6,/m/0mkg"
"aq_6GTopKU0,200.000,210.000,/m/05pd6,/m/0mkg"
"auiq5ZKD6PI,510.000,520.000,/m/05r5c,/m/0l14j_"
"b1R8aASvzG4,10.000,20.000,/m/05r5c,/m/0l14j_,/m/05148p4"
"b8q-GAKyZzM,60.000,70.000,/m/05r5c,/m/01xqw,/m/0l14j_"
"b9ku19VpcB0,140.000,150.000,/m/05r5c,/m/0l14j_"
"bL86-gr0QO0,30.000,40.000,/m/01xqw,/m/0l14j_"
"bp-W5hY5D8M,70.000,80.000,/m/018j2,/m/0mkg"
"c2XjFIQO3Ls,30.000,40.000,/m/05r5c,/m/0l14j_,/m/05148p4"
"cAPdESIfNoc,260.000,270.000,/m/042v_gx,/m/0342h,/m/0mkg"
"cH3dRNC2Voo,50.000,60.000,/m/05r5c,/m/0l14j_"
"cPfo7oF82NY,230.000,240.000,/m/06ncr,/m/0mkg"
"c_TgduYzv7c,330.000,340.000,/m/05pd6,/m/0mkg"
"cepC78BeR8o,60.000,70.000,/m/0342h,/m/0mkg"
"d2WL9ahhnhk,10.000,20.000,/m/05r5c,/m/0l14j_"
"d6N22NfFPQU,0.000,10.000,/m/01wy6,/m/0l14j_"
"d75yLJ8OHnI,30.000,40.000,/m/0342h,/m/0mkg"
"dFYwR7Y44T8,260.000,270.000,/m/05r5c,/m/0l14j_"
"dJJkhaiVDGo,320.000,330.000,/m/05r5c,/m/0l14j_"
"dKZkV3KmuTw,10.000,20.000,/m/05pd6,/m/0l14j_"
"dQXrmj6Goqg,180.000,190.000,/m/05pd6,/m/0mkg"
"dZfkZruDfbI,100.000,110.000,/m/07gql,/m/0192l,/m/0mkg"
"do4j6qSVhb0,320.000,330.000,/m/05r5c,/m/0l14j_"
"dopRe06Xu44,200.000,210.000,/m/01xqw,/m/0mkg"
"dwAxXHtaEc4,30.000,40.000,/m/05pd6,/m/0mkg"
"e4eLK-XArFI,160.000,170.000,/m/05r5c,/m/0l14j_"
"e7aTxQSmpfg,30.000,40.000,/m/05pd6,/m/0mkg"
"eLYi547vp_4,310.000,320.000,/m/05r5c,/m/0l14j_,/m/05148p4"
"ei6aNW-NvMo,400.000,410.000,/m/05r5c,/m/0l14j_,/m/01wy6"
"ej1TKgGmiFw,420.000,430.000,/m/03m5k,/m/0l14j_"
"el9Jr0_8VhA,160.000,170.000,/m/05r5c,/m/05148p4,/m/0mkg"
"ep83cUcGy6g,300.000,310.000,/m/01xqw,/m/0l14j_"
"esA22Tsel6A,340.000,350.000,/m/05r5c,/m/0l14j_"
"esndMKpyn1U,40.000,50.000,/m/01wy6,/m/0l14j_"
"exw5gZrjIck,110.000,120.000,/m/05r5c,/m/05148p4,/m/0mkg"
"f4y5BrM5jYs,140.000,150.000,/m/05r5c,/m/0l14j_"
"f7sQ_pGL_1k,240.000,250.000,/m/0l14j_,/m/0mkg"
"fN7oTnshv-8,30.000,40.000,/m/05pd6,/m/0l14j_"
"fTNGrfUdBZ8,50.000,60.000,/m/026t6,/m/0mkg"
"fdQ5JAHu3PA,400.000,410.000,/m/05r5c,/m/0l14j_"
"fgs8uZaNOlE,30.000,40.000,/m/01xqw,/m/0l14j_"
"fjD1go-xYfU,190.000,200.000,/m/05r5c,/m/0l14j_"
"fxS7l1Ugick,120.000,130.000,/m/05pd6,/m/0mkg"
"g6OGz1Z3qBA,10.000,20.000,/m/05r5c,/m/0l14j_"
"gF_qXWklXkk,30.000,40.000,/m/05pd6,/m/0mkg"
"gKbagVCXaLA,10.000,20.000,/m/05r5c,/m/0l14j_"
"gL_XY2ZUX6M,130.000,140.000,/m/01wy6,/m/05pd6,/m/0mkg"
"gN7VY42PDIY,30.000,40.000,/m/0342h,/m/0mkg"
"gQNaeMhGECE,390.000,400.000,/m/05r5c,/m/0mkg"
"gRSom_EbXcM,320.000,330.000,/m/05r5c,/m/0l14j_"
"gYQVSxrqsHM,150.000,160.000,/m/0342h,/m/0mkg"
"h1KLjC8rmLI,250.000,260.000,/m/05r5c,/m/0l14j_"
"h2O1dtRq7kA,290.000,300.000,/m/0dwsp,/m/0l14j_"
"h2u93HPqono,540.000,550.000,/m/02hnl,/m/0mkg"
"hER59se1D3U,160.000,170.000,/m/03m5k,/m/0l14j_"
"hkhbHmd6osc,60.000,70.000,/m/042v_gx,/m/0342h,/m/0mkg"
"hm3Dse4xcH0,200.000,210.000,/m/05r5c,/m/0l14j_"
"hnXpOBKl-_M,100.000,110.000,/m/03qjg,/m/0mkg"
"i6Rvd7pPfGU,80.000,90.000,/m/05r5c,/m/0l14j_"
"i8d-KC41nTY,60.000,70.000,/m/05r5c,/m/0l14j_"
"i9PpuZ6Zw_s,10.000,20.000,/m/03m5k,/m/0l14j_"
"iDh85Epe-eU,100.000,110.000,/m/05r5c,/m/0l14j_"
"iN0UdvlKQVQ,0.000,10.000,/m/06ncr,/m/0mkg"
"iONJISDdjKo,60.000,70.000,/m/026t6,/m/02hnl,/m/0mkg"
"id-fOnv0ZM4,30.000,40.000,/m/03qjg,/m/0mkg"
"irmkHZ_HN8w,100.000,110.000,/m/0342h,/m/0mkg"
"j0AV_Wg12KI,0.000,10.000,/m/05148p4,/m/0mkg"
"jQHc5vUrU7g,60.000,70.000,/m/03qjg,/m/05148p4,/m/0mkg"
"jRLR9sy1zyI,40.000,50.000,/m/03qjg,/m/0mkg"
"jWk2nf3Sqi8,210.000,220.000,/m/05r5c,/m/0dwsp,/m/0l14j_,/m/05148p4,/m/0f8s22"
"jm7-G8YKZM8,160.000,170.000,/m/0342h,/m/0mkg"
"k-QTKvp8fvg,130.000,140.000,/m/05r5c,/m/0l14j_"
"k3HO9i5SZ84,350.000,360.000,/m/0342h,/m/0mkg"
"kIUQ3BAhFJU,10.000,20.000,/m/05pd6,/m/0mkg"
"kPg1OWA4UrM,30.000,40.000,/m/03qjg,/m/0l14j_"
"kgAD_9HJ8s8,170.000,180.000,/m/07gql,/m/0mkg"
"kz7TBOgPM7g,10.000,20.000,/m/0dwsp,/m/0mkg"
"lB_azIj79-c,470.000,480.000,/m/05r5c,/m/0l14j_"
"lCTk6Lx__So,250.000,260.000,/m/02hnl,/m/0342h,/m/0mkg"
"lF6uzWIQRco,22.000,32.000,/m/07gql,/m/0l14j_"
"lHEjuwkQd5U,60.000,70.000,/m/06ncr,/m/0mkg"
"lR-yQWSii1w,110.000,120.000,/m/05148p4,/m/0mkg"
"lRp8GSx9o9I,190.000,200.000,/m/042v_gx,/m/0l14j_,/m/0342h"
"lS0ZEo3wY5E,0.000,10.000,/m/03qjg,/m/0mkg"
"lVaDCZoGWbU,0.000,10.000,/m/01wy6,/m/0mkg"
"lZYPQEfUv-c,200.000,210.000,/m/05r5c,/m/0l14j_"
"lf0bNi4OXQM,170.000,180.000,/m/07gql,/m/0mkg"
"lvESdjPB_14,320.000,330.000,/m/05pd6,/m/0l14j_"
"lykm1FFOBAg,0.000,10.000,/m/01xqw,/m/0l14j_"
"m-3cyiSUPfA,30.000,40.000,/m/05pd6,/m/0l14j_"
"m3YVW0h6oLY,180.000,190.000,/m/03m5k,/m/01xqw,/m/0l14j_"
"mQ3mKLUcuLk,40.000,50.000,/m/01wy6,/m/0l14j_"
"mZZjQqLcoXk,10.000,20.000,/m/03qjg,/m/0mkg"
"n-xEcGpf7ys,160.000,170.000,/m/01xqw,/m/0l14j_"
"nQPhI1yjCMk,230.000,240.000,/m/05r5c,/m/0l14j_,/m/05148p4"
"nTE0kL1jPyw,470.000,480.000,/m/05r5c,/m/0l14j_"
"ndLL-ycrOuM,40.000,50.000,/m/03qjg,/m/0mkg"
"nfdVHgHWoy8,170.000,180.000,/m/03qjg,/m/0mkg"
"ngYH9pivCqk,60.000,70.000,/m/05r5c,/m/0l14j_,/m/05148p4"
"nk9Qyhc4rXI,90.000,100.000,/m/0342h,/m/0mkg"
"o9gYbrk3cEQ,20.000,30.000,/m/06ncr,/m/0mkg"
"oHxPo5m2JrY,200.000,210.000,/m/0342h,/m/0mkg"
"oL7DoNoh7aQ,30.000,40.000,/m/01xqw,/m/0mkg"
"oLPAgBQ9hlQ,80.000,90.000,/m/07gql,/m/06ncr,/m/0mkg"
"oY9ow_wBwj4,480.000,490.000,/m/05r5c,/m/0l14j_,/m/05148p4"
"oZ5WMZUbKy4,40.000,50.000,/m/05pd6,/m/0l14j_"
"oZcJpI2Apiw,440.000,450.000,/m/01wy6,/m/0mkg"
"ob9BarOua6k,50.000,60.000,/m/05r5c,/m/0l14j_"
"ozgqaaTANdo,51.000,61.000,/m/01wy6,/m/0l14j_,/m/0342h"
"p4syxEj3oZQ,30.000,40.000,/m/01wy6,/m/0l14j_"
"pfvDmANB2Ko,210.000,220.000,/m/0bm02,/m/0l14j_,/m/0342h"
"pqMX4j_7_NY,240.000,250.000,/m/05r5c,/m/0l14j_,/m/0342h"
"pukny4fvbOQ,40.000,50.000,/m/01wy6,/m/0l14j_"
"pwqjrpAiVWE,80.000,90.000,/m/05pd6,/m/0l14j_"
"pzI4OdZqwXs,30.000,40.000,/m/05r5c,/m/0l14j_"
"qSzg-YttaZI,40.000,50.000,/m/01wy6,/m/0l14j_,/m/06ncr"
"qTRx6vvKm9M,40.000,50.000,/m/026t6,/m/05pd6,/m/02hnl,/m/06ncr,/m/0mkg"
"qeFiXKpXPcw,100.000,110.000,/m/05r5c,/m/0l14j_"
"qiviBlhBlqc,90.000,100.000,/m/05r5c,/m/01wy6,/m/0l14j_"
"qiw3Ge072SI,20.000,30.000,/m/01p970,/m/026t6,/m/0mkg"
"r7Bz_T8ryFc,340.000,350.000,/m/05r5c,/m/0l14j_"
"rDrUcyREWIw,0.000,10.000,/m/07gql,/m/0l14j_"
"rH2pBvGz2SI,20.000,30.000,/m/05pd6,/m/0mkg"
"rHA4R0p9iSY,140.000,150.000,/m/05148p4,/m/0mkg"
"rMxK-Pn8j_k,300.000,310.000,/m/05r5c,/m/0l14j_"
"rRwy1goLhIs,40.000,50.000,/m/05r5c,/m/0l14j_,/m/05148p4"
"raFOgZsVa2c,150.000,160.000,/m/05r5c,/m/0l14j_"
"rlq7kOsdG0Q,10.000,20.000,/m/0342h,/m/0mkg"
"rto5QVaryzk,0.000,10.000,/m/05r5c,/m/0l14j_,/m/01xqw,/m/05pd6"
"rw16j6zlZLI,100.000,110.000,/m/05pd6,/m/0mkg"
"s58VPPYb0UM,110.000,120.000,/m/03m5k,/m/0l14j_"
"sBoFtxQqhyY,110.000,120.000,/m/05r5c,/m/0l14j_"
"sJQaRVcIftc,70.000,80.000,/m/03qjg,/m/0mkg"
"sJf0S1pAHH0,30.000,40.000,/m/06ncr,/m/0mkg"
"sfDKjo41-eU,80.000,90.000,/m/0342h,/m/0mkg"
"siQ2Z15ldVg,80.000,90.000,/t/dd00003,/m/0mkg"
"spLBpeebN00,20.000,30.000,/m/0342h,/m/0mkg"
"sxQMimubv_Y,170.000,180.000,/m/07gql,/m/06ncr,/m/0mkg"
"tBv-qdVB6GY,80.000,90.000,/m/018j2,/m/0342h,/m/0mkg"
"tEHfn-KDqM4,40.000,50.000,/m/0jtg0,/m/0l14j_"
"tELsKCyI8sQ,30.000,40.000,/m/0l14j_,/m/0mkg"
"tERvGd-bEmQ,80.000,90.000,/m/0192l,/m/0mkg"
"t_hSAu9NuSY,70.000,80.000,/m/05r5c,/m/0l14j_"
"tpXK3QVAI8U,140.000,150.000,/m/0342h,/m/0mkg"
"tvK4t6Ak_yo,90.000,100.000,/m/0342h,/m/0mkg"
"uEnwmy36Sy8,70.000,80.000,/m/05r5c,/m/0l14j_"
"uIzOjEj4LUw,0.000,10.000,/m/05pd6,/m/0mkg"
"uPsrtZl57ts,90.000,100.000,/m/0342h,/m/0mkg"
"uSHjmtDpLAA,50.000,60.000,/m/05148p4,/m/0mkg"
"uYFxMhUjMag,160.000,170.000,/m/05r5c,/m/0l14j_"
"ue66OHDZGtA,50.000,60.000,/m/05r5c,/m/0l14j_"
"uokmzuqk_Og,30.000,40.000,/m/05pd6,/m/0mkg"
"v4nbJglFCtU,400.000,410.000,/m/02hnl,/m/0mkg"
"v7CwZYnrtXY,0.000,10.000,/m/06ncr,/m/0mkg"
"vDGr5_MN1Og,60.000,70.000,/m/0342h,/m/0mkg"
"vTCVxCW77wA,200.000,210.000,/m/05r5c,/m/0l14j_,/m/05148p4"
"vUnj1rwE9Kg,410.000,420.000,/t/dd00003,/m/0mkg"
"vkGIze9EwDE,80.000,90.000,/m/06ncr,/m/0mkg"
"vosLcwjE4uA,160.000,170.000,/m/05r5c,/m/0l14j_"
"vx-VGFmXvi8,100.000,110.000,/m/05148p4,/m/0mkg"
"w-6pKl4N54Y,110.000,120.000,/m/01wy6,/m/0l14j_"
"wCRDGmbKzBM,110.000,120.000,/m/05r5c,/m/0l14j_"
"wLoHUpt1klc,120.000,130.000,/m/0342h,/m/0mkg"
"wOz0P2HEkIU,330.000,340.000,/m/05r5c,/m/0l14j_,/m/05pd6"
"w_LgM3aE0zs,20.000,30.000,/m/0l14j_,/m/0mkg"
"wbP8yN-4rEI,30.000,40.000,/m/05r5c,/m/0l14j_"
"wdQjELXlQF8,320.000,330.000,/m/026t6,/m/05pd6,/m/0mkg"
"wiagzGefWoI,20.000,30.000,/m/03qjg,/m/0l14j_"
"wln_m-oOZ0w,10.000,20.000,/m/05pd6,/m/0mkg"
"wsDjnWPJ7-0,190.000,200.000,/m/05pd6,/t/dd00003,/m/0mkg"
"x03cROOjp0A,150.000,160.000,/m/05pd6,/m/0mkg"
"x03o44KmXlM,0.000,10.000,/m/03qjg,/m/0mkg"
"x3EhEulcSO4,160.000,170.000,/m/01xqw,/m/0mkg"
"xLTB_JjZr2s,20.000,30.000,/m/03m5k,/m/0l14j_"
"xRAh3N6GSuo,200.000,210.000,/m/026t6,/m/0mkg"
"xVQ6CeNzyFQ,30.000,40.000,/m/05148p4,/m/0mkg"
"xX4VW4f3OxA,30.000,40.000,/m/01xqw,/m/0l14j_"
"xavDHTXvr4E,30.000,40.000,/m/01xqw,/m/0l14j_"
"xlZw36h8vs4,30.000,40.000,/m/07gql,/m/06ncr,/m/0mkg"
"xysAD88oQD8,30.000,40.000,/m/07gql,/m/06ncr,/m/0mkg"
"y-QWGu_myMc,10.000,20.000,/m/03qjg,/m/0l14j_"
"y79jdAcwm2w,170.000,180.000,/m/05r5c,/m/0l14j_"
"y8_2ZxpnHnI,30.000,40.000,/m/07gql,/m/0l14j_"
"yEzTjfCWx-k,40.000,50.000,/m/01wy6,/m/0l14j_"
"yOapcT_rx0Y,30.000,40.000,/m/01xqw,/m/0l14j_"
"yWp-27CnHaI,310.000,320.000,/m/05r5c,/m/0l14j_,/m/05148p4"
"yX0GSE5ZBhE,150.000,160.000,/m/05r5c,/m/0l14j_,/m/05148p4"
"yYuT9bPCJBM,100.000,110.000,/m/05pd6,/m/0mkg"
"ybZUyeJXAAo,40.000,50.000,/m/01xqw,/m/0mkg"
"yf1DwraP64M,350.000,360.000,/m/05r5c,/m/0l14j_"
"yhtzrFgQqkE,30.000,40.000,/m/01wy6,/m/0l14j_"
"zH4rzadIMHI,40.000,50.000,/m/07gql,/m/06ncr,/m/0mkg"
"zPFg0Thgc34,130.000,140.000,/m/05r5c,/m/0l14j_"
"zQ-oKND7Pcw,140.000,150.000,/m/0342h,/m/0mkg"
"zTIne4AhjTo,200.000,210.000,/m/042v_gx,/m/0l14j_,/m/0342h"
"zZoaL3pZ0So,40.000,50.000,/m/05r5c,/m/0l14j_,/m/05148p4"
"z_5hHGx50Sg,70.000,80.000,/m/026t6,/m/06ncr,/m/0mkg"
"zeQ9CZKgzoM,10.000,20.000,/m/05pd6,/m/0mkg"
"zetTRCPdXY4,30.000,40.000,/m/01xqw,/m/0l14j_"
